{


  "href": "https://api.spotify.com/v1/playlists/7cRlcezGS1WgO2ErNqLgt5/tracks?offset=0&limit=5",
    "items": [
        {
            "added_at": "2017-03-08T08:53:55Z",
            "added_by": {
                "external_urls": {
                    "spotify": "https://open.spotify.com/user/nullvoidinfinity"
                },
                "href": "https://api.spotify.com/v1/users/nullvoidinfinity",
                "id": "nullvoidinfinity",
                "type": "user",
                "uri": "spotify:user:nullvoidinfinity"
            },
            "is_local": false,
            "primary_color": null,
            "track": {
                "album": {
                    "album_type": "album",
                    "artists": [
                        {
                            "external_urls": {
                                "spotify": "https://open.spotify.com/artist/3qm84nBOXUEQ2vnTfUTTFC"
                            },
                            "href": "https://api.spotify.com/v1/artists/3qm84nBOXUEQ2vnTfUTTFC",
                            "id": "3qm84nBOXUEQ2vnTfUTTFC",
                            "name": "Guns N' Roses",
                            "type": "artist",
                            "uri": "spotify:artist:3qm84nBOXUEQ2vnTfUTTFC"
                        }
                    ],
                    "available_markets": [],
                    "external_urls": {
                        "spotify": "https://open.spotify.com/album/5JKFiC2WVi9HtvJEm8CUB8"
                    },
                    "href": "https://api.spotify.com/v1/albums/5JKFiC2WVi9HtvJEm8CUB8",
                    "id": "5JKFiC2WVi9HtvJEm8CUB8",
                    "images": [
                        {
                            "height": 640,
                            "url": "https://i.scdn.co/image/ab67616d0000b273c8e5391a619e9e8ea2162073",
                            "width": 640
                        },
                        {
                            "height": 300,
                            "url": "https://i.scdn.co/image/ab67616d00001e02c8e5391a619e9e8ea2162073",
                            "width": 300
                        },
                        {
                            "height": 64,
                            "url": "https://i.scdn.co/image/ab67616d00004851c8e5391a619e9e8ea2162073",
                            "width": 64
                        }
                    ],
                    "name": "Appetite For Destruction",
                    "release_date": "1987-01-01",
                    "release_date_precision": "day",
                    "total_tracks": 12,
                    "type": "album",
                    "uri": "spotify:album:5JKFiC2WVi9HtvJEm8CUB8"
                },
                "artists": [
                    {
                        "external_urls": {
                            "spotify": "https://open.spotify.com/artist/3qm84nBOXUEQ2vnTfUTTFC"
                        },
                        "href": "https://api.spotify.com/v1/artists/3qm84nBOXUEQ2vnTfUTTFC",
                        "id": "3qm84nBOXUEQ2vnTfUTTFC",
                        "name": "Guns N' Roses",
                        "type": "artist",
                        "uri": "spotify:artist:3qm84nBOXUEQ2vnTfUTTFC"
                    }
                ],
                "available_markets": [],
                "disc_number": 1,
                "duration_ms": 273600,
                "episode": false,
                "explicit": false,
                "external_ids": {
                    "isrc": "USGF18714801"
                },
                "external_urls": {
                    "spotify": "https://open.spotify.com/track/5NIPsWpDjJTFBoPxCUUeXp"
                },
                "href": "https://api.spotify.com/v1/tracks/5NIPsWpDjJTFBoPxCUUeXp",
                "id": "5NIPsWpDjJTFBoPxCUUeXp",
                "is_local": false,
                "name": "Welcome To The Jungle",
                "popularity": 19,
                "preview_url": null,
                "track": true,
                "track_number": 1,
                "type": "track",
                "uri": "spotify:track:5NIPsWpDjJTFBoPxCUUeXp"
            },
            "video_thumbnail": {
                "url": null
            }
        },
        {
            "added_at": "2017-03-08T08:53:55Z",
            "added_by": {
                "external_urls": {
                    "spotify": "https://open.spotify.com/user/nullvoidinfinity"
                },
                "href": "https://api.spotify.com/v1/users/nullvoidinfinity",
                "id": "nullvoidinfinity",
                "type": "user",
                "uri": "spotify:user:nullvoidinfinity"
            },
            "is_local": false,
            "primary_color": null,
            "track": {
                "album": {
                    "album_type": "album",
                    "artists": [
                        {
                            "external_urls": {
                                "spotify": "https://open.spotify.com/artist/3qm84nBOXUEQ2vnTfUTTFC"
                            },
                            "href": "https://api.spotify.com/v1/artists/3qm84nBOXUEQ2vnTfUTTFC",
                            "id": "3qm84nBOXUEQ2vnTfUTTFC",
                            "name": "Guns N' Roses",
                            "type": "artist",
                            "uri": "spotify:artist:3qm84nBOXUEQ2vnTfUTTFC"
                        }
                    ],
                    "available_markets": [],
                    "external_urls": {
                        "spotify": "https://open.spotify.com/album/5JKFiC2WVi9HtvJEm8CUB8"
                    },
                    "href": "https://api.spotify.com/v1/albums/5JKFiC2WVi9HtvJEm8CUB8",
                    "id": "5JKFiC2WVi9HtvJEm8CUB8",
                    "images": [
                        {
                            "height": 640,
                            "url": "https://i.scdn.co/image/ab67616d0000b273c8e5391a619e9e8ea2162073",
                            "width": 640
                        },
                        {
                            "height": 300,
                            "url": "https://i.scdn.co/image/ab67616d00001e02c8e5391a619e9e8ea2162073",
                            "width": 300
                        },
                        {
                            "height": 64,
                            "url": "https://i.scdn.co/image/ab67616d00004851c8e5391a619e9e8ea2162073",
                            "width": 64
                        }
                    ],
                    "name": "Appetite For Destruction",
                    "release_date": "1987-01-01",
                    "release_date_precision": "day",
                    "total_tracks": 12,
                    "type": "album",
                    "uri": "spotify:album:5JKFiC2WVi9HtvJEm8CUB8"
                },
                "artists": [
                    {
                        "external_urls": {
                            "spotify": "https://open.spotify.com/artist/3qm84nBOXUEQ2vnTfUTTFC"
                        },
                        "href": "https://api.spotify.com/v1/artists/3qm84nBOXUEQ2vnTfUTTFC",
                        "id": "3qm84nBOXUEQ2vnTfUTTFC",
                        "name": "Guns N' Roses",
                        "type": "artist",
                        "uri": "spotify:artist:3qm84nBOXUEQ2vnTfUTTFC"
                    }
                ],
                "available_markets": [],
                "disc_number": 1,
                "duration_ms": 202893,
                "episode": false,
                "explicit": true,
                "external_ids": {
                    "isrc": "USGF18714802"
                },
                "external_urls": {
                    "spotify": "https://open.spotify.com/track/1NOA9ASZ7dbe0ChCj1C4Va"
                },
                "href": "https://api.spotify.com/v1/tracks/1NOA9ASZ7dbe0ChCj1C4Va",
                "id": "1NOA9ASZ7dbe0ChCj1C4Va",
                "is_local": false,
                "name": "It's So Easy",
                "popularity": 1,
                "preview_url": null,
                "track": true,
                "track_number": 2,
                "type": "track",
                "uri": "spotify:track:1NOA9ASZ7dbe0ChCj1C4Va"
            },
            "video_thumbnail": {
                "url": null
            }
        },
        {
            "added_at": "2017-03-08T08:53:55Z",
            "added_by": {
                "external_urls": {
                    "spotify": "https://open.spotify.com/user/nullvoidinfinity"
                },
                "href": "https://api.spotify.com/v1/users/nullvoidinfinity",
                "id": "nullvoidinfinity",
                "type": "user",
                "uri": "spotify:user:nullvoidinfinity"
            },
            "is_local": false,
            "primary_color": null,
            "track": {
                "album": {
                    "album_type": "album",
                    "artists": [
                        {
                            "external_urls": {
                                "spotify": "https://open.spotify.com/artist/3qm84nBOXUEQ2vnTfUTTFC"
                            },
                            "href": "https://api.spotify.com/v1/artists/3qm84nBOXUEQ2vnTfUTTFC",
                            "id": "3qm84nBOXUEQ2vnTfUTTFC",
                            "name": "Guns N' Roses",
                            "type": "artist",
                            "uri": "spotify:artist:3qm84nBOXUEQ2vnTfUTTFC"
                        }
                    ],
                    "available_markets": [],
                    "external_urls": {
                        "spotify": "https://open.spotify.com/album/5JKFiC2WVi9HtvJEm8CUB8"
                    },
                    "href": "https://api.spotify.com/v1/albums/5JKFiC2WVi9HtvJEm8CUB8",
                    "id": "5JKFiC2WVi9HtvJEm8CUB8",
                    "images": [
                        {
                            "height": 640,
                            "url": "https://i.scdn.co/image/ab67616d0000b273c8e5391a619e9e8ea2162073",
                            "width": 640
                        },
                        {
                            "height": 300,
                            "url": "https://i.scdn.co/image/ab67616d00001e02c8e5391a619e9e8ea2162073",
                            "width": 300
                        },
                        {
                            "height": 64,
                            "url": "https://i.scdn.co/image/ab67616d00004851c8e5391a619e9e8ea2162073",
                            "width": 64
                        }
                    ],
                    "name": "Appetite For Destruction",
                    "release_date": "1987-01-01",
                    "release_date_precision": "day",
                    "total_tracks": 12,
                    "type": "album",
                    "uri": "spotify:album:5JKFiC2WVi9HtvJEm8CUB8"
                },
                "artists": [
                    {
                        "external_urls": {
                            "spotify": "https://open.spotify.com/artist/3qm84nBOXUEQ2vnTfUTTFC"
                        },
                        "href": "https://api.spotify.com/v1/artists/3qm84nBOXUEQ2vnTfUTTFC",
                        "id": "3qm84nBOXUEQ2vnTfUTTFC",
                        "name": "Guns N' Roses",
                        "type": "artist",
                        "uri": "spotify:artist:3qm84nBOXUEQ2vnTfUTTFC"
                    }
                ],
                "available_markets": [],
                "disc_number": 1,
                "duration_ms": 268506,
                "episode": false,
                "explicit": false,
                "external_ids": {
                    "isrc": "USGF18714803"
                },
                "external_urls": {
                    "spotify": "https://open.spotify.com/track/2REDzWYPZu53tRPRyoelKi"
                },
                "href": "https://api.spotify.com/v1/tracks/2REDzWYPZu53tRPRyoelKi",
                "id": "2REDzWYPZu53tRPRyoelKi",
                "is_local": false,
                "name": "Nightrain",
                "popularity": 2,
                "preview_url": null,
                "track": true,
                "track_number": 3,
                "type": "track",
                "uri": "spotify:track:2REDzWYPZu53tRPRyoelKi"
            },
            "video_thumbnail": {
                "url": null
            }
        },
        {
            "added_at": "2017-03-08T08:53:55Z",
            "added_by": {
                "external_urls": {
                    "spotify": "https://open.spotify.com/user/nullvoidinfinity"
                },
                "href": "https://api.spotify.com/v1/users/nullvoidinfinity",
                "id": "nullvoidinfinity",
                "type": "user",
                "uri": "spotify:user:nullvoidinfinity"
            },
            "is_local": false,
            "primary_color": null,
            "track": {
                "album": {
                    "album_type": "album",
                    "artists": [
                        {
                            "external_urls": {
                                "spotify": "https://open.spotify.com/artist/3qm84nBOXUEQ2vnTfUTTFC"
                            },
                            "href": "https://api.spotify.com/v1/artists/3qm84nBOXUEQ2vnTfUTTFC",
                            "id": "3qm84nBOXUEQ2vnTfUTTFC",
                            "name": "Guns N' Roses",
                            "type": "artist",
                            "uri": "spotify:artist:3qm84nBOXUEQ2vnTfUTTFC"
                        }
                    ],
                    "available_markets": [],
                    "external_urls": {
                        "spotify": "https://open.spotify.com/album/5JKFiC2WVi9HtvJEm8CUB8"
                    },
                    "href": "https://api.spotify.com/v1/albums/5JKFiC2WVi9HtvJEm8CUB8",
                    "id": "5JKFiC2WVi9HtvJEm8CUB8",
                    "images": [
                        {
                            "height": 640,
                            "url": "https://i.scdn.co/image/ab67616d0000b273c8e5391a619e9e8ea2162073",
                            "width": 640
                        },
                        {
                            "height": 300,
                            "url": "https://i.scdn.co/image/ab67616d00001e02c8e5391a619e9e8ea2162073",
                            "width": 300
                        },
                        {
                            "height": 64,
                            "url": "https://i.scdn.co/image/ab67616d00004851c8e5391a619e9e8ea2162073",
                            "width": 64
                        }
                    ],
                    "name": "Appetite For Destruction",
                    "release_date": "1987-01-01",
                    "release_date_precision": "day",
                    "total_tracks": 12,
                    "type": "album",
                    "uri": "spotify:album:5JKFiC2WVi9HtvJEm8CUB8"
                },
                "artists": [
                    {
                        "external_urls": {
                            "spotify": "https://open.spotify.com/artist/3qm84nBOXUEQ2vnTfUTTFC"
                        },
                        "href": "https://api.spotify.com/v1/artists/3qm84nBOXUEQ2vnTfUTTFC",
                        "id": "3qm84nBOXUEQ2vnTfUTTFC",
                        "name": "Guns N' Roses",
                        "type": "artist",
                        "uri": "spotify:artist:3qm84nBOXUEQ2vnTfUTTFC"
                    }
                ],
                "available_markets": [],
                "disc_number": 1,
                "duration_ms": 263866,
                "episode": false,
                "explicit": true,
                "external_ids": {
                    "isrc": "USGF18714804"
                },
                "external_urls": {
                    "spotify": "https://open.spotify.com/track/5x6alRKb9sdCidGQz5luEd"
                },
                "href": "https://api.spotify.com/v1/tracks/5x6alRKb9sdCidGQz5luEd",
                "id": "5x6alRKb9sdCidGQz5luEd",
                "is_local": false,
                "name": "Out Ta Get Me",
                "popularity": 7,
                "preview_url": null,
                "track": true,
                "track_number": 4,
                "type": "track",
                "uri": "spotify:track:5x6alRKb9sdCidGQz5luEd"
            },
            "video_thumbnail": {
                "url": null
            }
        },
        {
            "added_at": "2017-03-08T08:53:55Z",
            "added_by": {
                "external_urls": {
                    "spotify": "https://open.spotify.com/user/nullvoidinfinity"
                },
                "href": "https://api.spotify.com/v1/users/nullvoidinfinity",
                "id": "nullvoidinfinity",
                "type": "user",
                "uri": "spotify:user:nullvoidinfinity"
            },
            "is_local": false,
            "primary_color": null,
            "track": {
                "album": {
                    "album_type": "album",
                    "artists": [
                        {
                            "external_urls": {
                                "spotify": "https://open.spotify.com/artist/3qm84nBOXUEQ2vnTfUTTFC"
                            },
                            "href": "https://api.spotify.com/v1/artists/3qm84nBOXUEQ2vnTfUTTFC",
                            "id": "3qm84nBOXUEQ2vnTfUTTFC",
                            "name": "Guns N' Roses",
                            "type": "artist",
                            "uri": "spotify:artist:3qm84nBOXUEQ2vnTfUTTFC"
                        }
                    ],
                    "available_markets": [],
                    "external_urls": {
                        "spotify": "https://open.spotify.com/album/5JKFiC2WVi9HtvJEm8CUB8"
                    },
                    "href": "https://api.spotify.com/v1/albums/5JKFiC2WVi9HtvJEm8CUB8",
                    "id": "5JKFiC2WVi9HtvJEm8CUB8",
                    "images": [
                        {
                            "height": 640,
                            "url": "https://i.scdn.co/image/ab67616d0000b273c8e5391a619e9e8ea2162073",
                            "width": 640
                        },
                        {
                            "height": 300,
                            "url": "https://i.scdn.co/image/ab67616d00001e02c8e5391a619e9e8ea2162073",
                            "width": 300
                        },
                        {
                            "height": 64,
                            "url": "https://i.scdn.co/image/ab67616d00004851c8e5391a619e9e8ea2162073",
                            "width": 64
                        }
                    ],
                    "name": "Appetite For Destruction",
                    "release_date": "1987-01-01",
                    "release_date_precision": "day",
                    "total_tracks": 12,
                    "type": "album",
                    "uri": "spotify:album:5JKFiC2WVi9HtvJEm8CUB8"
                },
                "artists": [
                    {
                        "external_urls": {
                            "spotify": "https://open.spotify.com/artist/3qm84nBOXUEQ2vnTfUTTFC"
                        },
                        "href": "https://api.spotify.com/v1/artists/3qm84nBOXUEQ2vnTfUTTFC",
                        "id": "3qm84nBOXUEQ2vnTfUTTFC",
                        "name": "Guns N' Roses",
                        "type": "artist",
                        "uri": "spotify:artist:3qm84nBOXUEQ2vnTfUTTFC"
                    }
                ],
                "available_markets": [],
                "disc_number": 1,
                "duration_ms": 228893,
                "episode": false,
                "explicit": true,
                "external_ids": {
                    "isrc": "USGF18714805"
                },
                "external_urls": {
                    "spotify": "https://open.spotify.com/track/39RGjsGMaKN7r7BZRdn1wV"
                },
                "href": "https://api.spotify.com/v1/tracks/39RGjsGMaKN7r7BZRdn1wV",
                "id": "39RGjsGMaKN7r7BZRdn1wV",
                "is_local": false,
                "name": "Mr. Brownstone",
                "popularity": 3,
                "preview_url": null,
                "track": true,
                "track_number": 5,
                "type": "track",
                "uri": "spotify:track:39RGjsGMaKN7r7BZRdn1wV"
            },
            "video_thumbnail": {
                "url": null
            }
        }
    ],
    "limit": 5,
    "next": "https://api.spotify.com/v1/playlists/7cRlcezGS1WgO2ErNqLgt5/tracks?offset=5&limit=5",
    "offset": 0,
    "previous": null,
    "total": 12
}